%YAML 1.1
%TAG !u! tag:unity3d.com,2011:
--- !u!78 &1
TagManager:
  serializedVersion: 2
  tags:
  - ParticleSystem1
  - ParticleSystem2
  - ParticleSystem3
  - ParticleSystem4
  - ParticleSystem5
  - ParticleSystemSpawnRight
  - ParticleSystemSpawnLeft
  - MarbleSpawnLeft
  - MarbleSpawnRight
  - Marble
  - Score
  - ScoreText
  - LevelManager
  - TimerText
  - LevelText
  layers:
  - Default
  - TransparentFX
  - Ignore Raycast
  - 
  - Water
  - UI
  - 
  - 
  - 
  - 
  - 
  - 
  - 
  - 
  - 
  - 
  - 
  - 
  - 
  - 
  - 
  - 
  - 
  - 
  - 
  - 
  - 
  - 
  - 
  - 
  - 
  - 
  m_SortingLayers:
  - name: Default
    uniqueID: 0
    locked: 0
